j1_soc/hdl/simulation/j1soc_TB.vcd
$date
	Tue Jan 10 18:53:33 2023
$end
$version
	Icarus Verilog
$end
$timescale
	1s
$end
$scope module j1soc_TB $end
$scope module uut $end
$var wire 1 ! sys_clk_i $end
$var wire 1 " sys_rst_i $end
$var wire 1 # uart_tx $end
$var wire 1 $ uart_dout $end
$var wire 16 % mult_dout [15:0] $end
$var wire 1 & ledout $end
$var wire 1 ' j1_io_wr $end
$var wire 1 ( j1_io_rd $end
$var wire 16 ) j1_io_dout [15:0] $end
$var wire 16 * j1_io_addr [15:0] $end
$var wire 16 + dp_ram_dout [15:0] $end
$var wire 16 , div_dout [15:0] $end
$var reg 4 - cs [1:4] $end
$var reg 16 . j1_io_din [15:0] $end
$scope module cpu0 $end
$var wire 1 / _dstkW $end
$var wire 1 0 _ramWE $end
$var wire 16 1 io_addr [15:0] $end
$var wire 16 2 io_din [15:0] $end
$var wire 16 3 io_dout [15:0] $end
$var wire 1 ( io_rd $end
$var wire 1 ' io_wr $end
$var wire 16 4 rst0 [15:0] $end
$var wire 16 5 st1 [15:0] $end
$var wire 1 ! sys_clk_i $end
$var wire 1 " sys_rst_i $end
$var wire 2 6 rd [1:0] $end
$var wire 16 7 ramrd [15:0] $end
$var wire 16 8 pc_plus_1 [15:0] $end
$var wire 1 9 is_lit $end
$var wire 1 : is_alu $end
$var wire 16 ; insn [15:0] $end
$var wire 16 < immediate [15:0] $end
$var wire 2 = dd [1:0] $end
$var reg 5 > _dsp [4:0] $end
$var reg 13 ? _pc [12:0] $end
$var reg 5 @ _rsp [4:0] $end
$var reg 16 A _rstkD [15:0] $end
$var reg 1 B _rstkW $end
$var reg 16 C _st0 [15:0] $end
$var reg 5 D dsp [4:0] $end
$var reg 13 E pc [12:0] $end
$var reg 5 F rsp [4:0] $end
$var reg 16 G st0 [15:0] $end
$var reg 4 H st0sel [3:0] $end
$scope module ram0 $end
$var wire 13 I adr_a [12:0] $end
$var wire 13 J adr_b [12:0] $end
$var wire 1 ! clk_a $end
$var wire 1 ! clk_b $end
$var wire 16 K dat_a [15:0] $end
$var wire 1 L en_a $end
$var wire 1 M en_b $end
$var wire 1 N we_a $end
$var reg 16 O dat_a_out [15:0] $end
$var reg 16 P dat_b [15:0] $end
$upscope $end
$upscope $end
$scope module dpRm $end
$var wire 8 Q addr [7:0] $end
$var wire 1 ! clk $end
$var wire 1 R cs $end
$var wire 16 S d_in [15:0] $end
$var wire 1 ( rd $end
$var wire 1 ' wr $end
$var wire 1 T wr_p $end
$var wire 1 U rd_p $end
$var wire 16 V d_out_p [15:0] $end
$var wire 16 W d_out [15:0] $end
$var wire 16 X d_in_p [15:0] $end
$var wire 8 Y addr_p [7:0] $end
$scope module c_p $end
$var wire 1 ! clk $end
$var wire 16 Z d_in [15:0] $end
$var reg 16 [ F_1 [15:0] $end
$var reg 16 \ F_2 [15:0] $end
$var reg 16 ] F_3 [15:0] $end
$var reg 16 ^ F_4 [15:0] $end
$var reg 16 _ F_5 [15:0] $end
$var reg 16 ` F_6 [15:0] $end
$var reg 8 a addr [7:0] $end
$var reg 16 b d_out [15:0] $end
$var reg 4 c estado [3:0] $end
$var reg 1 U rd $end
$var reg 1 T wr $end
$upscope $end
$scope module dlptRAM $end
$var wire 8 d addr_1 [7:0] $end
$var wire 8 e addr_2 [7:0] $end
$var wire 1 ! clk $end
$var wire 16 f d_in_1 [15:0] $end
$var wire 16 g d_in_2 [15:0] $end
$var wire 1 h rd_1 $end
$var wire 1 U rd_2 $end
$var wire 1 i wr_1 $end
$var wire 1 T wr_2 $end
$var reg 16 j d_out_1 [15:0] $end
$var reg 16 k d_out_2 [15:0] $end
$upscope $end
$upscope $end
$scope module per_d $end
$var wire 4 l addr [3:0] $end
$var wire 1 ! clk $end
$var wire 1 m cs $end
$var wire 16 n d_in [15:0] $end
$var wire 1 ( rd $end
$var wire 1 " rst $end
$var wire 1 ' wr $end
$var wire 1 o done $end
$var wire 16 p C [15:0] $end
$var reg 16 q A [15:0] $end
$var reg 16 r B [15:0] $end
$var reg 16 s d_out [15:0] $end
$var reg 1 t init $end
$var reg 6 u s [5:0] $end
$scope module d_16 $end
$var wire 16 v A [15:0] $end
$var wire 16 w B [15:0] $end
$var wire 1 ! clk $end
$var wire 1 t init_in $end
$var wire 1 " rst $end
$var wire 1 x z $end
$var wire 1 o done $end
$var wire 1 y SH $end
$var wire 16 z Result_Sub [15:0] $end
$var wire 16 { Result [15:0] $end
$var wire 16 | Reg_A [15:0] $end
$var wire 1 } MSB $end
$var wire 1 ~ LDA $end
$var wire 1 !" INIT $end
$var wire 1 "" DV0 $end
$var wire 1 #" DEC $end
$scope module ctl_dv $end
$var wire 1 ! clk $end
$var wire 1 " rst $end
$var wire 1 t start $end
$var wire 1 x z $end
$var wire 1 } MSB $end
$var reg 1 #" DEC $end
$var reg 1 o DONE $end
$var reg 1 "" DV0 $end
$var reg 1 !" INIT $end
$var reg 1 ~ LDA $end
$var reg 1 y SH $end
$var reg 3 $" state [2:0] $end
$upscope $end
$scope module ctr_dv $end
$var wire 1 #" DEC $end
$var wire 1 ! clk $end
$var wire 1 !" rst $end
$var reg 5 %" cont [4:0] $end
$var reg 1 x z $end
$upscope $end
$scope module fr $end
$var wire 1 #" DEC $end
$var wire 1 ! clk $end
$var wire 1 !" rst $end
$var wire 1 } MSB $end
$var reg 16 &" Result [15:0] $end
$upscope $end
$scope module lsr_d $end
$var wire 16 '" DV_in [15:0] $end
$var wire 1 !" INIT $end
$var wire 1 ~ LDA $end
$var wire 1 y SH $end
$var wire 1 ! clk $end
$var wire 1 (" rst $end
$var wire 16 )" Result [15:0] $end
$var reg 16 *" A [15:0] $end
$var reg 16 +" DV [15:0] $end
$upscope $end
$scope module sb $end
$var wire 1 "" DV0 $end
$var wire 1 ! clk $end
$var wire 16 ," in_A [15:0] $end
$var wire 16 -" in_B [15:0] $end
$var wire 1 " rst $end
$var reg 1 } MSB $end
$var reg 16 ." Result [15:0] $end
$upscope $end
$upscope $end
$upscope $end
$scope module per_m $end
$var wire 4 /" addr [3:0] $end
$var wire 1 ! clk $end
$var wire 1 0" cs $end
$var wire 16 1" d_in [15:0] $end
$var wire 1 ( rd $end
$var wire 1 " rst $end
$var wire 1 ' wr $end
$var wire 32 2" pp [31:0] $end
$var wire 1 3" done $end
$var reg 16 4" A [15:0] $end
$var reg 16 5" B [15:0] $end
$var reg 16 6" d_out [15:0] $end
$var reg 1 7" init $end
$var reg 6 8" s [5:0] $end
$scope module mt_32 $end
$var wire 16 9" A [15:0] $end
$var wire 16 :" B [15:0] $end
$var wire 1 ! clk $end
$var wire 1 7" init $end
$var wire 1 " rst $end
$var wire 1 ;" w_z $end
$var wire 1 <" w_sh $end
$var wire 1 =" w_reset $end
$var wire 1 >" w_add $end
$var wire 16 ?" w_B [15:0] $end
$var wire 32 @" w_A [31:0] $end
$var wire 32 A" pp [31:0] $end
$var wire 1 3" done $end
$scope module acc0 $end
$var wire 1 ! clk $end
$var wire 1 =" rst $end
$var wire 1 >" add $end
$var wire 32 B" A [31:0] $end
$var reg 32 C" pp [31:0] $end
$upscope $end
$scope module comp0 $end
$var wire 1 ;" z $end
$var wire 16 D" B [15:0] $end
$var reg 1 E" tmp $end
$upscope $end
$scope module control0 $end
$var wire 1 ! clk $end
$var wire 1 7" init $end
$var wire 1 F" lsb_B $end
$var wire 1 " rst $end
$var wire 1 ;" z $end
$var reg 1 >" add $end
$var reg 4 G" count [3:0] $end
$var reg 1 3" done $end
$var reg 1 =" reset $end
$var reg 1 <" sh $end
$var reg 3 H" state [2:0] $end
$upscope $end
$scope module lsr0 $end
$var wire 1 ! clk $end
$var wire 16 I" in_A [15:0] $end
$var wire 1 =" load $end
$var wire 1 <" shift $end
$var reg 32 J" s_A [31:0] $end
$upscope $end
$scope module rsr0 $end
$var wire 1 ! clk $end
$var wire 16 K" in_B [15:0] $end
$var wire 1 =" load $end
$var wire 1 <" shift $end
$var reg 16 L" s_B [15:0] $end
$upscope $end
$upscope $end
$upscope $end
$scope module per_u $end
$var wire 4 M" addr [3:0] $end
$var wire 1 ! clk $end
$var wire 1 N" cs $end
$var wire 16 O" d_in [15:0] $end
$var wire 1 ( rd $end
$var wire 1 " rst $end
$var wire 1 ' wr $end
$var wire 1 # uart_tx $end
$var wire 1 P" uart_busy $end
$var reg 8 Q" d_in_uart [7:0] $end
$var reg 16 R" d_out [15:0] $end
$var reg 1 & ledout $end
$var reg 3 S" s [2:0] $end
$scope module uart $end
$var wire 1 T" ser_clk $end
$var wire 1 ! sys_clk_i $end
$var wire 1 " sys_rst_i $end
$var wire 8 U" uart_dat_i [7:0] $end
$var wire 1 V" uart_wr_i $end
$var wire 1 P" uart_busy $end
$var wire 1 W" sending $end
$var wire 29 X" dNxt [28:0] $end
$var wire 29 Y" dInc [28:0] $end
$var reg 4 Z" bitcount [3:0] $end
$var reg 29 [" d [28:0] $end
$var reg 9 \" shifter [8:0] $end
$var reg 1 # uart_tx $end
$upscope $end
$upscope $end
$upscope $end
$upscope $end
$enddefinitions $end
#0
$dumpvars
b0 \"
b0 ["
b0 Z"
b11110100001000100100111000000 Y"
b11110100001000100100111000000 X"
0W"
0V"
bx U"
1T"
b0 S"
bx R"
bx Q"
0P"
bx O"
0N"
b0 M"
bx L"
b0 K"
bx J"
b0 I"
b0 H"
bx G"
xF"
0E"
bx D"
b0 C"
bx B"
b0 A"
bx @"
bx ?"
0>"
1="
0<"
0;"
b0 :"
b0 9"
b0 8"
07"
bx 6"
b0 5"
b0 4"
03"
b0 2"
bx 1"
00"
b0 /"
b0 ."
b0 -"
bx ,"
bx +"
bx *"
b0 )"
0("
b0 '"
b0 &"
b10000 %"
b0 $"
0#"
0""
1!"
0~
0}
bx |
b0 {
b0 z
0y
xx
b0 w
b0 v
b0 u
0t
bx s
b0 r
b0 q
b0 p
0o
bx n
0m
b0 l
b0 k
b0 j
0i
0h
b0 g
bx f
b1010 e
b0 d
b0 c
b0 b
b1010 a
b0 `
b0 _
b0 ^
b0 ]
b0 \
b0 [
b0 Z
b1010 Y
b0 X
b0 W
b0 V
1U
0T
bx S
0R
b0 Q
bx P
bx O
xN
1M
xL
bx K
b0 J
b0 I
bx H
b0 G
b0 F
b0 E
b0 D
bx C
0B
b0 A
b0 @
b0 ?
b0 >
bx =
b0xxxxxxxxxxxxxxx <
bx ;
x:
x9
b1 8
bx 7
bx 6
bx 5
bx 4
bx 3
b11001100110 2
b0 1
x0
x/
b11001100110 .
b0 -
bx ,
b0 +
b0 *
bx )
0(
x'
0&
bx %
x$
1#
1"
1!
$end
#1
bx V
bx Z
bx k
0F"
1;"
1E"
0$
b0 ?"
b0 D"
b0 L"
b0 @"
b0 B"
b0 J"
b0 %
b0 6"
b0 +"
b0 |
b0 *"
b0 ,"
0x
b0 ,
b0 s
b0 R"
0!
#2
0N
1L
0/
0'
00
b0 C
b0 6
b10 =
09
0:
b10010010010 <
b0 H
b10010010010 ;
b10010010010 P
bx `
1!
#3
0!
#4
b10010010010 7
b10010010010 O
1!
#5
0!
#6
1!
#7
0!
#8
1!
#9
0!
#10
1/
b1 >
b1 6
b1 =
19
b101 <
b101 C
b10010010011 8
b10010010010 E
b1000000000000101 ;
b1000000000000101 P
b11100001000000000 Y"
0T"
b10010010011 A
b11110100001100000101111000000 X"
b11110100001000100100111000000 ["
b0 G"
b10010010011 J
b10010010011 ?
1!
0"
#11
0!
#12
b11 C
b10 I
b10010010100 A
b0 6
b11 =
b11 <
b101 Q
b101 d
b101 M"
b101 l
b101 /"
b10010010100 J
b10010010100 ?
b10 >
b1000000000000011 ;
b1000000000000011 P
b101 *
b101 1
b101 G
b10010010100 8
b10010010011 E
b0 )
b0 3
b0 S
b0 f
b0 n
b0 1"
b0 O"
b0 5
b0 K
b1 D
b11110100001111100110111000000 X"
b11110100001100000101111000000 ["
1!
#13
0!
#14
b1 I
0/
1B
b1 @
b11 Q
b11 d
b11 M"
b11 l
b11 /"
09
b100010001000011 <
b100100101010 A
b10 >
b10001000011 J
b10001000011 ?
b11 *
b11 1
b11 G
b10010010101 8
b10010010100 E
b101 )
b101 3
b101 S
b101 f
b101 n
b101 1"
b101 O"
b101 5
b101 K
b10 D
b110111010000001 7
b110111010000001 O
b100010001000011 ;
b100010001000011 P
b11110100010011000111111000000 X"
b11110100001111100110111000000 ["
1!
#15
0!
#16
1/
b101 C
b0 =
1:
b110000110000000 <
b1 H
b10001000100 J
b10001000100 ?
b11 A
0B
b110000110000000 ;
b110000110000000 P
b10010010010 7
b10010010010 O
b100100101010 4
b1 F
b10001000100 8
b10001000011 E
b11110100010110101000111000000 X"
b11110100010011000111111000000 ["
1!
#17
0!
#18
b10 I
b11 >
0L
b101 Q
b101 d
b101 M"
b101 l
b101 /"
19
0:
b110011100000000 <
b111 H
b10001000101 A
b10001000101 J
b10001000101 ?
b101 *
b101 1
b101 G
b10001000101 8
b10001000100 E
b1110011100000000 ;
b1110011100000000 P
b110011100000000 C
b11110100011010001001111000000 X"
b11110100010110101000111000000 ["
b11 )
b11 3
b11 S
b11 f
b11 n
b11 1"
b11 O"
b11 5
b11 K
1!
#19
0!
#20
b1 8"
0N
0/
1'
10
b1001110000000 I
b0 .
b0 2
10"
b110011100000000 A
0L
b11 =
09
1:
b110000000100011 <
b0 H
b0 Q
b0 d
b0 M"
b0 l
b0 /"
b1000 -
b10001000110 J
b10001000110 ?
b10 >
b110011100000000 C
b110000000100011 ;
b110000000100011 P
b110011100000000 *
b110011100000000 1
b110011100000000 G
b10001000110 8
b10001000101 E
b101 )
b101 3
b101 S
b101 f
b101 n
b101 1"
b101 O"
b101 5
b101 K
b11 D
b11110100011101101010111000000 X"
b11110100011010001001111000000 ["
1!
#21
b101 @"
b101 B"
b101 J"
b101 4"
b101 9"
b101 I"
0!
#22
b0 8"
1L
0'
00
b11 C
b110000100000011 <
b1 H
b1 >
b10001000111 J
b10001000111 ?
b10001000111 8
b10001000110 E
b11 )
b11 3
b11 S
b11 f
b11 n
b11 1"
b11 O"
b11 5
b11 K
b10 D
b110000100000011 ;
b110000100000011 P
b11110100100001001011111000000 X"
b11110100011101101010111000000 ["
1!
#23
0!
#24
1/
b1 I
b11001100110 .
b11001100110 2
00"
0L
b10 =
19
0:
b110011100000010 <
b111 H
b11 Q
b11 d
b11 M"
b11 l
b11 /"
b0 -
b10001001000 J
b10001001000 ?
b10001001000 A
b10 >
b110011100000010 C
b1110011100000010 ;
b1110011100000010 P
b1111111111111111 7
b1111111111111111 O
b11 *
b11 1
b11 G
b10001001000 8
b10001000111 E
b0 )
b0 3
b0 S
b0 f
b0 n
b0 1"
b0 O"
b0 5
b0 K
b1 D
b11110100100100101100111000000 X"
b11110100100001001011111000000 ["
1!
#25
0!
#26
0N
b1001110000001 I
b10 8"
b0 .
b0 2
10"
0/
1'
10
0L
b10 Q
b10 d
b10 M"
b10 l
b10 /"
b1000 -
b11 =
09
1:
b110000000100011 <
b0 H
b110011100000010 C
b110011100000010 A
b1 >
b10001001001 J
b10001001001 ?
b110011100000010 *
b110011100000010 1
b110011100000010 G
b10001001001 8
b10001001000 E
b11 )
b11 3
b11 S
b11 f
b11 n
b11 1"
b11 O"
b11 5
b11 K
b10 D
b110000000100011 ;
b110000000100011 P
b11110100101000001101111000000 X"
b11110100100100101100111000000 ["
1!
#27
b11 5"
b11 :"
b11 K"
0!
#28
b0 8"
1L
0'
00
b0 C
b110000100000011 <
b1 H
b10001001010 J
b10001001010 ?
b0 >
b110000100000011 ;
b110000100000011 P
b10001001010 8
b10001001001 E
b0 )
b0 3
b0 S
b0 f
b0 n
b0 1"
b0 O"
b0 5
b0 K
b1 D
b11110100101011101110111000000 X"
b11110100101000001101111000000 ["
1!
#29
1F"
0;"
0E"
b11 ?"
b11 D"
b11 L"
0!
#30
b0 I
b11001100110 .
b11001100110 2
00"
1/
1L
b0 Q
b0 d
b0 M"
b0 l
b0 /"
b0 -
b1 =
19
0:
b1 <
b0 H
b1 C
b10001001011 A
b1 >
b10001001011 J
b10001001011 ?
b0 *
b0 1
b0 G
b10001001011 8
b10001001010 E
bx )
bx 3
bx S
bx f
bx n
bx 1"
bx O"
bx 5
bx K
b0 D
b1000000000000001 ;
b1000000000000001 P
b11110100101111001111111000000 X"
b11110100101011101110111000000 ["
1!
#31
0!
#32
0L
b110011100000100 C
b10001001100 A
b1 6
b0 =
b110011100000100 <
b111 H
b1 Q
b1 d
b1 M"
b1 l
b1 /"
b10001001100 J
b10001001100 ?
b10 >
b1110011100000100 ;
b1110011100000100 P
b10010010010 7
b10010010010 O
b1 *
b1 1
b1 G
b10001001100 8
b10001001011 E
b0 )
b0 3
b0 S
b0 f
b0 n
b0 1"
b0 O"
b0 5
b0 K
b1 D
b11110100110010110000111000000 X"
b11110100101111001111111000000 ["
1!
#33
0!
#34
0N
b1001110000010 I
b100 8"
b0 .
b0 2
10"
0/
1'
10
0L
b100 Q
b100 d
b100 M"
b100 l
b100 /"
b1000 -
b0 6
b11 =
09
1:
b110000000100011 <
b0 H
b110011100000100 C
b110011100000100 A
b1 >
b10001001101 J
b10001001101 ?
b110011100000100 *
b110011100000100 1
b110011100000100 G
b10001001101 8
b10001001100 E
b1 )
b1 3
b1 S
b1 f
b1 n
b1 1"
b1 O"
b1 5
b1 K
b10 D
b110000000100011 ;
b110000000100011 P
b11110100110110010001111000000 X"
b11110100110010110000111000000 ["
1!
#35
17"
0!
#36
b0 8"
1L
0'
00
b0 C
b110000100000011 <
b1 H
b10001001110 J
b10001001110 ?
b0 >
b110000100000011 ;
b110000100000011 P
b10001001110 8
b10001001101 E
b0 )
b0 3
b0 S
b0 f
b0 n
b0 1"
b0 O"
b0 5
b0 K
b1 D
0="
b1 H"
b11110100111001110010111000000 X"
b11110100110110010001111000000 ["
1!
#37
07"
0!
#38
b0 I
b11001100110 .
b11001100110 2
00"
1/
0L
b0 Q
b0 d
b0 M"
b0 l
b0 /"
b0 -
b1 6
b10 =
19
0:
b110011100000110 <
b111 H
b110011100000110 C
b10001001111 A
b1 >
b10001001111 J
b10001001111 ?
b0 *
b0 1
b0 G
b10001001111 8
b10001001110 E
bx )
bx 3
bx S
bx f
bx n
bx 1"
bx O"
bx 5
bx K
b0 D
b1111111111111111 7
b1111111111111111 O
b1110011100000110 ;
b1110011100000110 P
1>"
b11110100111101010011111000000 X"
b11110100111001110010111000000 ["
b11 H"
1!
#39
b101 2"
b101 A"
b101 C"
0!
#40
b1000 8"
1(
0/
b1001110000011 I
b0 .
b0 2
10"
b110011100000110 A
1L
b0 6
b0 =
09
1:
b110110000000000 <
b1100 H
b110 Q
b110 d
b110 M"
b110 l
b110 /"
b1000 -
b10001010000 J
b10001010000 ?
b1 >
b0 C
b110110000000000 ;
b110110000000000 P
b110011100000110 *
b110011100000110 1
b110011100000110 G
b10001010000 8
b10001001111 E
b0 )
b0 3
b0 S
b0 f
b0 n
b0 1"
b0 O"
b0 5
b0 K
b1 D
0>"
1<"
b10 H"
b11110101000000110100111000000 X"
b11110100111101010011111000000 ["
1!
#41
b1 ?"
b1 D"
b1 L"
b1010 @"
b1010 B"
b1010 J"
0!
#42
b0 I
0(
b0 8"
b11001100110 .
b11001100110 2
00"
1/
b10 >
1L
b0 Q
b0 d
b0 M"
b0 l
b0 /"
b0 -
b1 =
19
0:
b1 <
b0 H
b1 C
b10001010001 A
b10001010001 J
b10001010001 ?
b0 *
b0 1
b0 G
b10001010001 8
b10001010000 E
b1000000000000001 ;
b1000000000000001 P
0<"
b11110101000100010101111000000 X"
b11110101000000110100111000000 ["
b1 H"
1!
#43
0!
#44
0/
b0 C
b1 A
b11 =
09
1:
b110011100000011 <
b111 H
b1 Q
b1 d
b1 M"
b1 l
b1 /"
b10001010010 J
b10001010010 ?
b1 >
b110011100000011 ;
b110011100000011 P
b10010010010 7
b10010010010 O
b1 *
b1 1
b1 G
b10001010010 8
b10001010001 E
b10 D
1>"
b11 H"
b11110101000111110110111000000 X"
b11110101000100010101111000000 ["
1!
#45
b1111 2"
b1111 A"
b1111 C"
0!
#46
1L
b0 Q
b0 d
b0 M"
b0 l
b0 /"
b11 6
b10 =
0:
b10010001001110 <
b1 H
b0 C
b10001001110 A
0B
b0 >
b10001001110 J
b10001001110 ?
b0 *
b0 1
b0 G
b10001010011 8
b10001010010 E
b1 D
b10010001001110 ;
b10010001001110 P
0>"
1<"
b11110101001011010111111000000 X"
b11110101000111110110111000000 ["
b10 H"
1!
#47
0F"
1;"
1E"
b10100 @"
b10100 B"
b10100 J"
b0 ?"
b0 D"
b0 L"
0!
#48
0L
1/
b10001001111 A
b1 >
b1 6
19
b110011100000110 <
b111 H
b10001001111 J
b10001001111 ?
b110011100000110 C
b1110011100000110 ;
b1110011100000110 P
b10001001111 8
b10001001110 E
bx )
bx 3
bx S
bx f
bx n
bx 1"
bx O"
bx 5
bx K
b0 D
0<"
13"
b100 H"
b11110101001110111000111000000 X"
b11110101001011010111111000000 ["
1!
#49
0!
#50
b1000 8"
b1001110000011 I
1(
b0 .
b0 2
10"
0/
1L
b110 Q
b110 d
b110 M"
b110 l
b110 /"
b1000 -
b0 6
b0 =
09
1:
b110110000000000 <
b1100 H
b0 C
b110011100000110 A
b1 >
b10001010000 J
b10001010000 ?
b110011100000110 *
b110011100000110 1
b110011100000110 G
b10001010000 8
b10001001111 E
b0 )
b0 3
b0 S
b0 f
b0 n
b0 1"
b0 O"
b0 5
b0 K
b1 D
b110110000000000 ;
b110110000000000 P
b11110101010010011001111000000 X"
b11110101001110111000111000000 ["
b1 G"
1!
#51
b1 C
b1 .
b1 2
b1 %
b1 6"
0!
#52
1/
1L
b0 I
0(
b0 8"
b11001100110 .
b11001100110 2
00"
b10 >
b1 =
19
0:
b1 <
b0 H
b1 C
b1 Q
b1 d
b1 M"
b1 l
b1 /"
b0 -
b10001010001 J
b10001010001 ?
b10001010001 A
b1000000000000001 ;
b1000000000000001 P
b1111111111111111 7
b1111111111111111 O
b1 *
b1 1
b1 G
b10001010001 8
b10001010000 E
b10 G"
b11110101010101111010111000000 X"
b11110101010010011001111000000 ["
1!
#53
b0 %
b0 6"
0!
#54
0L
0/
b1111111111111111 C
b11 =
09
1:
b110011100000011 <
b111 H
b1 A
b1 >
b10001010010 J
b10001010010 ?
b10001010010 8
b10001010001 E
b1 )
b1 3
b1 S
b1 f
b1 n
b1 1"
b1 O"
b1 5
b1 K
b10 D
b10010010010 7
b10010010010 O
b110011100000011 ;
b110011100000011 P
b11110101011001011011111000000 X"
b11110101010101111010111000000 ["
b11 G"
1!
#55
0!
#56
b1111111111111 I
1L
b11 6
b10 =
0:
b10010001001110 <
b1 H
b11111111 Q
b11111111 d
b1111 M"
b1111 l
b1111 /"
b10001010011 J
b10001010011 ?
b10001010011 A
0B
b0 >
b0 C
b10010001001110 ;
b10010001001110 P
b1111111111111111 *
b1111111111111111 1
b1111111111111111 G
b10001010011 8
b10001010010 E
b0 )
b0 3
b0 S
b0 f
b0 n
b0 1"
b0 O"
b0 5
b0 K
b1 D
b100 G"
b11110101011100111100111000000 X"
b11110101011001011011111000000 ["
1!
#57
0!
#58
0L
b0 I
1/
b1 >
b0 Q
b0 d
b0 M"
b0 l
b0 /"
b10 6
b0 =
19
b110011100001000 <
b111 H
b110011100001000 C
b10001010100 A
b10001010100 J
b10001010100 ?
b0 *
b0 1
b0 G
b10001010100 8
b10001010011 E
bx )
bx 3
bx S
bx f
bx n
bx 1"
bx O"
bx 5
bx K
b0 D
b1111111111111111 7
b1111111111111111 O
b1110011100001000 ;
b1110011100001000 P
b11110101100000011101111000000 X"
b11110101011100111100111000000 ["
b101 G"
1!
#59
0!
#60
b10000 8"
1(
0/
b1001110000100 I
b0 .
b0 2
10"
b110011100001000 A
1L
b0 6
09
1:
b110110000000000 <
b1100 H
b1000 Q
b1000 d
b1000 M"
b1000 l
b1000 /"
b1000 -
b10001010101 J
b10001010101 ?
b1 >
b0 C
b110110000000000 ;
b110110000000000 P
b110011100001000 *
b110011100001000 1
b110011100001000 G
b10001010101 8
b10001010100 E
b0 )
b0 3
b0 S
b0 f
b0 n
b0 1"
b0 O"
b0 5
b0 K
b1 D
b110 G"
b11110101100011111110111000000 X"
b11110101100000011101111000000 ["
1!
#61
0!
#62
b0 I
0(
b0 8"
b11001100110 .
b11001100110 2
00"
1/
b10 >
0L
b0 Q
b0 d
b0 M"
b0 l
b0 /"
b0 -
b10 6
b10 =
19
0:
b110011100001010 <
b111 H
b110011100001010 C
b10001010110 A
b10001010110 J
b10001010110 ?
b0 *
b0 1
b0 G
b10001010110 8
b10001010101 E
b1110011100001010 ;
b1110011100001010 P
b11110101100111011111111000000 X"
b11110101100011111110111000000 ["
b111 G"
1!
#63
0!
#64
b100000 8"
1(
0/
b1001110000101 I
b0 .
b0 2
10"
b110011100001010 A
b0 @
1L
b11 6
b0 =
09
1:
b111110000001100 <
b1100 H
b1010 Q
b1010 d
b1010 M"
b1010 l
b1010 /"
b1000 -
b10010010101 J
b10010010101 ?
b10 >
b0 C
b111110000001100 ;
b111110000001100 P
b110011100001010 *
b110011100001010 1
b110011100001010 G
b10001010111 8
b10001010110 E
b10 D
b1000 G"
b11110101101011000000111000000 X"
b11110101100111011111111000000 ["
1!
#65
b1111 C
b1111 .
b1111 2
b1111 %
b1111 6"
0!
#66
b111 I
0(
b0 8"
b11001100110 .
b11001100110 2
00"
1/
b11 >
1L
b1111 Q
b1111 d
b1111 M"
b1111 l
b1111 /"
b0 -
b0 6
b1 =
19
0:
b1 <
b0 H
b1 C
b10010010110 A
b0 @
b10010010110 J
b10010010110 ?
bx 4
b0 F
b1111 *
b1111 1
b1111 G
b10010010110 8
b10010010101 E
b1000000000000001 ;
b1000000000000001 P
b11110101101110100001111000000 X"
b11110101101011000000111000000 ["
b1001 G"
1!
#67
b0 %
b0 6"
0!
#68
0L
b110100100000100 C
b0 I
b10010010111 A
b1 6
b0 =
b110100100000100 <
b1001 H
b1 Q
b1 d
b1 M"
b1 l
b1 /"
b10010010111 J
b10010010111 ?
b100 >
b1110100100000100 ;
b1110100100000100 P
b110000101000111 7
b110000101000111 O
b1 *
b1 1
b1 G
b10010010111 8
b10010010110 E
b1111 )
b1111 3
b1111 S
b1111 f
b1111 n
b1111 1"
b1111 O"
b1111 5
b1111 K
b11 D
1="
03"
b0 H"
b1010 G"
b11110101110010000010111000000 X"
b11110101101110100001111000000 ["
1!
#69
1F"
0;"
0E"
b11 ?"
b11 D"
b11 L"
b101 @"
b101 B"
b101 J"
b0 2"
b0 A"
b0 C"
0!
#70
0N
b1010010000010 I
b100 S"
b0 .
b0 2
1N"
0/
1'
10
0L
b100 Q
b100 d
b100 M"
b100 l
b100 /"
b10 -
b0 6
b11 =
09
1:
b110000000100011 <
b0 H
b110100100000100 C
b110100100000100 A
b11 >
b10010011000 J
b10010011000 ?
b110100100000100 *
b110100100000100 1
b110100100000100 G
b10010011000 8
b10010010111 E
b1 )
b1 3
b1 S
b1 f
b1 n
b1 1"
b1 O"
b1 5
b1 K
b100 D
b110000000100011 ;
b110000000100011 P
b11110101110101100011111000000 X"
b11110101110010000010111000000 ["
b0 G"
1!
#71
1&
0!
#72
b0 S"
1L
0'
00
b1111 C
b110000100000011 <
b1 H
b10010011001 J
b10010011001 ?
b10 >
b110000100000011 ;
b110000100000011 P
b10010011001 8
b10010011000 E
b1111 )
b1111 3
b1111 S
b1111 f
b1111 n
b1111 1"
b1111 O"
b1111 5
b1111 K
b11 D
b11110101111001000100111000000 X"
b11110101110101100011111000000 ["
1!
#73
0!
#74
b111 I
b11001100110 .
b11001100110 2
0N"
1/
1L
b1111 Q
b1111 d
b1111 M"
b1111 l
b1111 /"
b0 -
b1 =
19
0:
b1 <
b0 H
b1 C
b10010011010 A
b11 >
b10010011010 J
b10010011010 ?
b1111 *
b1111 1
b1111 G
b10010011010 8
b10010011001 E
b0 )
b0 3
b0 S
b0 f
b0 n
b0 1"
b0 O"
b0 5
b0 K
b10 D
b1111111111111111 7
b1111111111111111 O
b1000000000000001 ;
b1000000000000001 P
b11110101111100100101111000000 X"
b11110101111001000100111000000 ["
1!
#75
0!
#76
0L
b110100100000100 C
b0 I
b10010011011 A
b1 6
b0 =
b110100100000100 <
b1001 H
b1 Q
b1 d
b1 M"
b1 l
b1 /"
b10010011011 J
b10010011011 ?
b100 >
b1110100100000100 ;
b1110100100000100 P
b110000101000111 7
b110000101000111 O
b1 *
b1 1
b1 G
b10010011011 8
b10010011010 E
b1111 )
b1111 3
b1111 S
b1111 f
b1111 n
b1111 1"
b1111 O"
b1111 5
b1111 K
b11 D
b11110110000000000110111000000 X"
b11110101111100100101111000000 ["
1!
#77
0!
#78
0N
b1010010000010 I
b100 S"
b0 .
b0 2
1N"
0/
1'
10
0L
b100 Q
b100 d
b100 M"
b100 l
b100 /"
b10 -
b0 6
b11 =
09
1:
b110000000100011 <
b0 H
b110100100000100 C
b110100100000100 A
b11 >
b10010011100 J
b10010011100 ?
b110100100000100 *
b110100100000100 1
b110100100000100 G
b10010011100 8
b10010011011 E
b1 )
b1 3
b1 S
b1 f
b1 n
b1 1"
b1 O"
b1 5
b1 K
b100 D
b110000000100011 ;
b110000000100011 P
b11110110000011100111111000000 X"
b11110110000000000110111000000 ["
1!
#79
0!
#80
b0 S"
1L
0'
00
b1111 C
b110000100000011 <
b1 H
b10010011101 J
b10010011101 ?
b10 >
b110000100000011 ;
b110000100000011 P
b10010011101 8
b10010011100 E
b1111 )
b1111 3
b1111 S
b1111 f
b1111 n
b1111 1"
b1111 O"
b1111 5
b1111 K
b11 D
b11110110000111001000111000000 X"
b11110110000011100111111000000 ["
1!
#81
0!
