rv32i/bench.vcd
$date
	Wed Aug 23 18:05:02 2023
$end
$version
	Icarus Verilog
$end
$timescale
	1s
$end
$scope module bench $end
$var wire 1 ! TXD $end
$var wire 5 " LEDS [4:0] $end
$var reg 1 # CLK $end
$var reg 1 $ RESET $end
$var reg 1 % RXD $end
$var reg 5 & prev_LEDS [4:0] $end
$scope module uut $end
$var wire 1 % RXD $end
$var wire 1 # clk $end
$var wire 1 $ resetn $end
$var wire 1 ' uart_valid $end
$var wire 1 ( uart_ready $end
$var wire 1 ) mem_wstrb $end
$var wire 30 * mem_wordaddr [29:0] $end
$var wire 4 + mem_wmask [3:0] $end
$var wire 32 , mem_wdata [31:0] $end
$var wire 1 - mem_rstrb $end
$var wire 32 . mem_rdata [31:0] $end
$var wire 32 / mem_addr [31:0] $end
$var wire 1 0 isRAM $end
$var wire 1 1 isIO $end
$var wire 1 ! TXD $end
$var wire 32 2 RAM_rdata [31:0] $end
$var wire 32 3 IO_rdata [31:0] $end
$var reg 5 4 LEDS [4:0] $end
$scope module CPU $end
$var wire 1 5 LOAD_sign $end
$var wire 32 6 aluIn1 [31:0] $end
$var wire 32 7 aluOut [31:0] $end
$var wire 1 8 aluWr $end
$var wire 1 # clk $end
$var wire 1 9 funct3IsShift $end
$var wire 1 : isALU $end
$var wire 1 ; jumpToPCplusImm $end
$var wire 1 < mem_rbusy $end
$var wire 32 = mem_rdata [31:0] $end
$var wire 1 - mem_rstrb $end
$var wire 1 > mem_wbusy $end
$var wire 4 ? mem_wmask [3:0] $end
$var wire 1 @ needToWait $end
$var wire 1 A predicate $end
$var wire 1 $ reset $end
$var wire 1 B writeBack $end
$var wire 32 C writeBackData [31:0] $end
$var wire 5 D rdId [4:0] $end
$var wire 32 E mem_wdata [31:0] $end
$var wire 1 F mem_halfwordAccess $end
$var wire 1 G mem_byteAccess $end
$var wire 32 H mem_addr [31:0] $end
$var wire 24 I loadstore_addr [23:0] $end
$var wire 1 J isStore $end
$var wire 1 K isSYSTEM $end
$var wire 1 L isLoad $end
$var wire 1 M isLUI $end
$var wire 1 N isJALR $end
$var wire 1 O isJAL $end
$var wire 1 P isBranch $end
$var wire 1 Q isAUIPC $end
$var wire 1 R isALUreg $end
$var wire 1 S isALUimm $end
$var wire 8 T funct3Is [7:0] $end
$var wire 32 U aluPlus [31:0] $end
$var wire 33 V aluMinus [32:0] $end
$var wire 32 W aluIn2 [31:0] $end
$var wire 1 X aluBusy $end
$var wire 32 Y Uimm [31:0] $end
$var wire 32 Z Simm [31:0] $end
$var wire 4 [ STORE_wmask [3:0] $end
$var wire 24 \ PCplusImm [23:0] $end
$var wire 24 ] PCplus4 [23:0] $end
$var wire 1 ^ LTU $end
$var wire 1 _ LT $end
$var wire 16 ` LOAD_halfword [15:0] $end
$var wire 32 a LOAD_data [31:0] $end
$var wire 8 b LOAD_byte [7:0] $end
$var wire 32 c Jimm [31:0] $end
$var wire 32 d Iimm [31:0] $end
$var wire 1 e EQ $end
$var wire 32 f Bimm [31:0] $end
$var reg 24 g PC [23:0] $end
$var reg 32 h aluReg [31:0] $end
$var reg 5 i aluShamt [4:0] $end
$var reg 32 j cycles [31:0] $end
$var reg 30 k instr [31:2] $end
$var reg 32 l rs1 [31:0] $end
$var reg 32 m rs2 [31:0] $end
$var reg 4 n state [3:0] $end
$upscope $end
$scope module RAM $end
$var wire 1 # clk $end
$var wire 32 o mem_addr [31:0] $end
$var wire 1 p mem_rstrb $end
$var wire 32 q mem_wdata [31:0] $end
$var wire 4 r mem_wmask [3:0] $end
$var wire 30 s word_addr [29:0] $end
$var reg 32 t mem_rdata [31:0] $end
$upscope $end
$scope module UART $end
$var wire 1 # i_clk $end
$var wire 8 u i_data [7:0] $end
$var wire 1 v i_rst $end
$var wire 1 ' i_valid $end
$var wire 1 ! o_uart_tx $end
$var reg 9 w cnt [8:0] $end
$var reg 10 x data [9:0] $end
$var reg 1 ( o_ready $end
$upscope $end
$upscope $end
$upscope $end
$enddefinitions $end
#0
$dumpvars
b0 x
b0 w
1v
bx u
bx t
b0xxxxxxxxxxxxxxxxxxxxxx s
bx r
bx q
xp
b0xxxxxxxxxxxxxxxxxxxxxxxx o
bx n
bx m
bx l
bx k
b0 j
b0 i
bx h
bx g
bx0 f
xe
bx d
bx0 c
bx b
bx a
bx `
x_
x^
bx ]
bx \
bx [
bx Z
bx000000000000 Y
0X
bx W
bx V
bx U
bx T
xS
xR
xQ
xP
xO
xN
xM
xL
xK
xJ
bx I
b0xxxxxxxxxxxxxxxxxxxxxxxx H
xG
xF
bx E
bx D
bx C
xB
xA
x@
bx ?
0>
bx =
0<
x;
x:
x9
x8
bx 7
bx 6
x5
bx 4
b0x000000000 3
bx 2
x1
x0
b0xxxxxxxxxxxxxxxxxxxxxxxx /
bx .
x-
bx ,
bx +
b0xxxxxxxxxxxxxxxxxxxxxx *
x)
x(
x'
bx &
0%
0$
0#
bx "
1!
$end
#20
0'
0p
b0 r
0-
0)
b0 +
b0 ?
08
b100 ]
b0 g
b1000 n
b1 j
b111111111 w
1#
#40
0#
#60
b0 3
b11101010 w
1(
b10 j
1#
#80
0#
#100
b11 j
1#
#120
0#
#140
b100 j
1#
#160
0#
#180
b101 j
1#
#200
0#
#220
b110 j
1#
#240
0#
0v
1$
#260
b0 s
10
01
b0 *
b0 /
b0 H
b0 o
0B
1p
1-
b1 n
b111 j
1#
#280
0#
#300
bx0xxx a
bx0xxx b
b0xxxxx0xxx `
0p
0-
b10000000000000110110111 .
b10000000000000110110111 =
b10000000000000110110111 2
b10000000000000110110111 t
b1000 j
b10 n
1#
#320
0#
#340
0A
b100 7
05
b10000000000000000000000 C
b0 a
b1000 [
1_
b1000000 `
b0 b
b10000000000000000000000 \
1^
0e
b11 /
b11 H
b11 o
1B
09
b111111111111111111111111111111100 V
b11 I
0@
b100 U
b100 W
0:
0;
b11 D
b1 T
b10000000000000000000000 Y
b100 d
b11 Z
b100000000010 f
b100 c
0L
0S
0J
0R
0K
0O
0N
1M
0Q
0P
1G
0F
b100 n
b100000000000001101101 k
b0 6
b0 l
b1001 j
1#
#360
0#
#380
b1 s
b1 *
b100 /
b100 H
b100 o
0B
1p
1-
b1010 j
b1 n
b1000 ]
b10000000000000000000100 \
b100 g
1#
#400
0#
#420
b1000000 a
b1000000 b
0p
b100000000000000 `
0-
b1000000000000000000000100010011 .
b1000000000000000000000100010011 =
b10 n
b1011 j
b1000000000000000000000100010011 2
b1000000000000000000000100010011 t
1#
#440
0#
#460
b10000000000 7
b10000000000 C
b10011 a
b1 [
b100000000 s
b100000000 *
b100 \
b100010011 `
b10011 b
b10000000000 /
b10000000000 H
b10000000000 o
1B
b111111111111111111111110000000000 V
18
b10000000000 U
b10000000000 W
1:
b10000000000 I
b0 u
b10 D
b1000000000000000000000000000000 Y
b10000000000 d
b10000000010 Z
b10000000010 f
b10000000000 c
1S
0M
b0 ,
b0 E
b0 q
b1100 j
b100 n
b10000000000000000000001000100 k
b0 m
1#
#480
0#
#500
b10 s
b10 *
b1000 /
b1000 H
b1000 o
0B
1p
1-
08
b1 n
b1100 ]
b1000 \
b1000 g
b1101 j
1#
#520
0#
#540
15
b11111111111111111111111110110111 a
b10110111 b
b1101001010110111 `
0p
0-
b10101010101110111101001010110111 .
b10101010101110111101001010110111 =
b10101010101110111101001010110111 2
b10101010101110111101001010110111 t
b1110 j
b10 n
1#
#560
0#
#580
b10101010101110111101000000000000 C
xA
bx0x0x0x0x0xxx0xxxx0x00x0x0xx0xxx .
bx0x0x0x0x0xxx0xxxx0x00x0x0xx0xxx =
bx 7
b0xxxxxxxxxxxxxxxxxxxxxx s
x0
x1
b0xxxxxxxxxxxxxxxxxxxxxx *
b101110111101000000001000 \
b0xxxxxxxxxxxxxxxxxxxxxxxx /
b0xxxxxxxxxxxxxxxxxxxxxxxx H
b0xxxxxxxxxxxxxxxxxxxxxxxx o
1B
19
bx0x0x0xxxxxx `
bx b
b11111111111111111111101010101011 W
0:
b0xxxxx0x0x0xxxxxx a
bx [
05
bx u
x_
b101 D
b100000 T
b10101010101110111101000000000000 Y
b11111111111111111111101010101011 d
b11111111111111111111101010100101 Z
b11111111111111111111101010100100 f
b11111111111110111101101010101010 c
0S
1M
0G
1F
bx ,
bx E
bx q
bx I
x^
xe
b100 n
b101010101011101111010010101101 k
bx m
bx U
bx V
bx 6
bx l
b1111 j
1#
#600
0#
#620
b1xxxxx1x b
b1xxxx0101011xx11 a
b1xxxx0101011xx11 `
b10101010101110111101001010110111 .
b10101010101110111101001010110111 =
b11 s
10
01
b11 *
b1100 /
b1100 H
b1100 o
0B
1p
1-
b10000 j
b1 n
b10000 ]
b101110111101000000001100 \
b1100 g
1#
#640
0#
#660
b1x0xxxxx b
b1x00xxxx1x01001x a
0p
b1x00xxxx1x01001x `
0-
b11001101110100101000001010010011 .
b11001101110100101000001010010011 =
b10 n
b10001 j
b11001101110100101000001010010011 2
b11001101110100101000001010010011 t
1#
#680
0#
#700
b10101010101110111100110011011101 C
0A
b10101010101110111100110011011101 7
b1011101111001100110111 s
b1011101111001100110111 *
b110100101000000000001100 \
0@
b10 [
b101110111100110011011101 /
b101110111100110011011101 H
b101110111100110011011101 o
1B
09
b1000001010010011 `
b10000010 b
18
b11111111111111111111110011011101 W
1:
b11111111111111111111111110000010 a
15
1_
b1 T
b11001101110100101000000000000000 Y
b11111111111111111111110011011101 d
b11111111111111111111110011000101 Z
b11111111111111111111110011000100 f
b11111111111100101000110011011100 c
1S
0M
1G
0F
b101110111100110011011101 I
1^
0e
b10010 j
b100 n
b110011011101001010000010100100 k
b10101010101110111100110011011101 U
b110101010101110111101001100100011 V
b10101010101110111101000000000000 6
b10101010101110111101000000000000 l
1#
#720
0#
#740
b100 s
b100 *
b10000 /
b10000 H
b10000 o
0B
1p
1-
08
b1 n
b10100 ]
b110100101000000000010000 \
b10000 g
b10011 j
1#
#760
0#
#780
b11111111111111111111111110000000 a
b10000000 b
b1000000000100011 `
0p
0-
b10100011000000000100011 .
b10100011000000000100011 =
b10100011000000000100011 2
b10100011000000000100011 t
b10100 j
b10 n
1#
#800
0#
#820
05
b10000000000000000000101 7
b0 `
b1 [
b0 C
b0 a
b0 .
b0 =
b0 b
b100000000000000000000 s
00
11
b100000000000000000000 *
0^
b0 r
b10000000000000000000000 /
b10000000000000000000000 H
b10000000000000000000000 o
1@
1)
b1 +
b1 ?
b10000 \
0_
b101 W
0:
b11011101 u
b0 D
b10100011000000000000000 Y
b101 d
b0 Z
b0 f
b11000100000000100 c
0S
1J
b10101010101110111100110011011101 ,
b10101010101110111100110011011101 E
b10101010101110111100110011011101 q
b10000000000000000000000 I
b100 n
b101000110000000001000 k
b10101010101110111100110011011101 m
b10000000000000000000101 U
b1111111111111111111011 V
b10000000000000000000000 6
b10000000000000000000000 l
b10101 j
1#
#840
0#
#860
0)
b0 +
b0 ?
b10110 j
b1000 n
b11000 ]
b10100 \
b10100 g
1#
#880
0#
#900
b100011 a
b100011 b
b1000000000100011 `
b10100011000000000100011 .
b10100011000000000100011 =
1p
b101 s
10
01
b101 *
b10100 /
b10100 H
b10100 o
1-
b1 n
b10111 j
1#
#920
0#
#940
15
b11111111111111111111111110100011 a
b10100011 b
b1000000010100011 `
0p
0-
b10100011000000010100011 .
b10100011000000010100011 =
b10100011000000010100011 2
b10100011000000010100011 t
b11000 j
b10 n
1#
#960
0#
#980
05
b0 `
b10 [
b0 a
b0 .
b0 =
b0 b
b11011101101110111101110111011101 ,
b11011101101110111101110111011101 E
b11011101101110111101110111011101 q
b100000000000000000000 s
00
11
b100000000000000000000 *
b0 r
b100000010100 \
b10000000000000000000001 /
b10000000000000000000001 H
b10000000000000000000001 o
1)
b10 +
b10 ?
b10000000000000000000001 I
b1 D
b1 Z
b100000000000 f
b100 n
b101000110000000101000 k
b11001 j
1#
#1000
0#
#1020
0)
b0 +
b0 ?
b11010 j
b1000 n
b11100 ]
b100000011000 \
b11000 g
1#
#1040
0#
#1060
15
b11111111111111111111111110000000 a
b10000000 b
b1000000010100011 `
b10100011000000010100011 .
b10100011000000010100011 =
1p
b110 s
10
01
b110 *
b11000 /
b11000 H
b11000 o
1-
b1 n
b11011 j
1#
#1080
0#
#1100
b11111111111111111111111110000001 a
b10000001 b
b1000000100100011 `
0p
0-
b10100011000000100100011 .
b10100011000000100100011 =
b10100011000000100100011 2
b10100011000000100100011 t
b11100 j
b10 n
1#
#1120
0#
#1140
05
b0 a
b100 [
b0 .
b0 =
b0 `
b0 b
b11001100110111011100110011011101 ,
b11001100110111011100110011011101 E
b11001100110111011100110011011101 q
b100000000000000000000 s
00
11
b100000000000000000000 *
b0 r
b11010 \
b10000000000000000000010 /
b10000000000000000000010 H
b10000000000000000000010 o
1)
b100 +
b100 ?
b10000000000000000000010 I
b10 D
b10 Z
b10 f
b100 n
b101000110000001001000 k
b11101 j
1#
#1160
0#
#1180
0)
b0 +
b0 ?
b11110 j
b1000 n
b100000 ]
b11110 \
b11100 g
1#
#1200
0#
#1220
b1010001 a
b1010001 b
b1010001 `
b10100011000000100100011 .
b10100011000000100100011 =
1p
b111 s
10
01
b111 *
b11100 /
b11100 H
b11100 o
1-
b1 n
b11111 j
1#
#1240
0#
#1260
0p
0-
b10100011000000110100011 .
b10100011000000110100011 =
b10100011000000110100011 2
b10100011000000110100011 t
b100000 j
b10 n
1#
#1280
0#
#1300
b0 `
b1000 [
b0 a
b0 .
b0 =
b0 b
b11011101110111011101110111011101 ,
b11011101110111011101110111011101 E
b11011101110111011101110111011101 q
b100000000000000000000 s
00
11
b100000000000000000000 *
b0 r
b100000011110 \
b10000000000000000000011 /
b10000000000000000000011 H
b10000000000000000000011 o
1)
b1000 +
b1000 ?
b10000000000000000000011 I
b11 D
b11 Z
b100000000010 f
b100 n
b101000110000001101000 k
b100001 j
1#
#1320
0#
#1340
0)
b0 +
b0 ?
b100010 j
b1000 n
b100100 ]
b100000100010 \
b100000 g
1#
#1360
0#
#1380
b1010001 `
b10100011000000110100011 .
b10100011000000110100011 =
1p
b1000 s
10
01
b1000 *
b100000 /
b100000 H
b100000 o
1-
b1 n
b100011 j
1#
#1400
0#
#1420
0p
0-
b10100011001001000100011 .
b10100011001001000100011 =
b10100011001001000100011 2
b10100011001001000100011 t
b100100 j
b10 n
1#
#1440
0#
#1460
1A
05
b0 .
b0 =
bx 7
b0 `
b0 b
b10101010101110111100110011011101 ,
b10101010101110111100110011011101 E
b10101010101110111100110011011101 q
b100000000000000000001 s
00
11
b100000000000000000001 *
b100100 \
b0 r
b10000000000000000000100 /
b10000000000000000000100 H
b10000000000000000000100 o
19
b10000000000000000000100 I
1)
b11 +
b11 ?
b0 a
b11 [
b100 D
b10 T
b10100011001000000000000 Y
b100 Z
b100 f
b11001100000000100 c
0G
1F
b100 n
b101000110010010001000 k
b100101 j
1#
#1480
0#
#1500
0)
b0 +
b0 ?
b11101 "
b11101 4
b100110 j
b1000 n
b101000 ]
b101000 \
b100100 g
1#
#1520
0#
#1540
15
b100011 b
b11111111111111111001001000100011 a
b1001001000100011 `
b10100011001001000100011 .
b10100011001001000100011 =
1p
b1001 s
10
01
b1001 *
b100100 /
b100100 H
b100100 o
1-
b1 n
b100111 j
1#
#1560
0#
#1580
b11111111111111111001001100100011 a
b1001001100100011 `
0p
0-
b10100011001001100100011 .
b10100011001001100100011 =
b10100011001001100100011 2
b10100011001001100100011 t
b101000 j
b10 n
1#
#1600
0#
#1620
05
b0 b
b0 a
b1100 [
b0 .
b0 =
b0 `
b11001100110111011100110011011101 ,
b11001100110111011100110011011101 E
b11001100110111011100110011011101 q
b100000000000000000001 s
00
11
b100000000000000000001 *
b0 r
b101010 \
b10000000000000000000110 /
b10000000000000000000110 H
b10000000000000000000110 o
1)
b1100 +
b1100 ?
b10000000000000000000110 I
b110 D
b110 Z
b110 f
b100 n
b101000110010011001000 k
b101001 j
1#
#1640
0#
#1660
0)
b0 +
b0 ?
b101010 j
b1000 n
b101100 ]
b101110 \
b101000 g
1#
#1680
0#
#1700
b1010001 b
b1010001 a
b1010001 `
b10100011001001100100011 .
b10100011001001100100011 =
1p
b1010 s
10
01
b1010 *
b101000 /
b101000 H
b101000 o
1-
b1 n
b101011 j
1#
#1720
0#
#1740
0p
0-
b10100011010010000100011 .
b10100011010010000100011 =
b10100011010010000100011 2
b10100011010010000100011 t
b101100 j
b10 n
1#
#1760
0#
#1780
0A
05
b0 b
1'
b0 .
b0 =
b0 7
b0 `
b10101010101110111100110011011101 ,
b10101010101110111100110011011101 E
b10101010101110111100110011011101 q
b100000000000000000010 s
00
11
b100000000000000000010 *
b0 r
b110000 \
b10000000000000000001000 /
b10000000000000000001000 H
b10000000000000000001000 o
1)
b1111 +
b1111 ?
09
b10000000000000000001000 I
b0 a
b1111 [
b1000 D
b100 T
b10100011010000000000000 Y
b1000 Z
b1000 f
b11010100000000100 c
0F
b100 n
b101000110100100001000 k
b101101 j
1#
#1800
0#
#1820
0'
0)
b0 +
b0 ?
0!
b1110111010 x
0(
b101110 j
b1000 n
b110000 ]
b110100 \
b101100 g
1#
#1840
0#
#1860
15
b100011 b
b10100011010010000100011 a
b1010010000100011 `
b10100011010010000100011 .
b10100011010010000100011 =
1p
b1011 s
10
01
b1011 *
b101100 /
b101100 H
b101100 o
1-
b1 n
b101111 j
b11101001 w
1#
#1880
0#
#1900
05
b11101111 b
b100110000000000000011101111 a
b11101111 `
0p
0-
b100110000000000000011101111 .
b100110000000000000011101111 =
b11101000 w
b100110000000000000011101111 2
b100110000000000000011101111 t
b110000 j
b10 n
1#
#1920
0#
#1940
b1001100 7
b0 b
b110000 C
b10000 s
b10000 *
b1000001 /
b1000001 H
b1000001 o
1B
0@
05
b1001100 W
1;
b1111000 \
b0 a
b10 [
bx u
1_
b1 D
b1 T
b100110000000000000000000000 Y
b1001100 d
b1000001 Z
b100001000000 f
b1001100 c
0J
1O
1G
bx ,
bx E
bx q
b1000001 I
1^
b100 n
b1001100000000000000111011 k
bx m
b1001100 U
b111111111111111111111111110110100 V
b0 6
b0 l
b110001 j
b11100111 w
1#
#1960
0#
#1980
b1000000000 3
b11110 s
b11110 *
b1111000 /
b1111000 H
b1111000 o
0B
1p
b1111100 C
1-
b11100110 w
b110010 j
b1 n
b1111100 ]
b11000100 \
b1111000 g
1#
#2000
0#
#2020
b110 a
b110 b
0p
b11000010011 `
0-
b100000000011000010011 .
b100000000011000010011 =
b10 n
b110011 j
b100000000011000010011 2
b100000000011000010011 t
b11100101 w
1#
#2040
0#
#2060
b1 7
b0 3
b10 [
b1 C
b110 a
b0 s
b0 *
b110 b
b1 /
b1 H
b1 o
1B
b111111111111111111111111111111111 V
18
b1 U
b1 W
1:
0;
b100000000000001111000 \
b1 I
b110000 u
b1100 D
b100000000000000000000 Y
b1 d
b1100 Z
b1100 f
b100000000000 c
1S
0O
b110000000000000011000000110000 ,
b110000000000000011000000110000 E
b110000000000000011000000110000 q
b11100100 w
b110100 j
b100 n
b1000000000110000100 k
b110000 m
1#
#2080
0#
#2100
b1000000000 3
b11111 s
b11111 *
b1111100 /
b1111100 H
b1111100 o
0B
1p
1-
08
b1 n
b10000000 ]
b100000000000001111100 \
b1111100 g
b110101 j
b11100011 w
1#
#2120
0#
#2140
b10110 a
b10110 b
b1011000010011 `
0p
0-
b1101100001011000010011 .
b1101100001011000010011 =
b11100010 w
b1101100001011000010011 2
b1101100001011000010011 t
b110110 j
b10 n
1#
#2160
0#
#2180
bx C
1A
b0 3
1@
bx 7
b1 s
b1 *
b1101100001000001111100 \
b100 /
b100 H
b100 o
1B
19
b1011000010011 `
b10011 b
18
b11 W
b1011000010011 a
b11 [
b0 u
1_
b10 T
b1101100001000000000000 Y
b11 d
b1100001100000000010 c
0G
1F
b10000000000000000000000 ,
b10000000000000000000000 E
b10000000000000000000000 q
b100 I
1^
0e
b100 n
b11011000010110000100 k
b10000000000000000000000 m
b100 U
b111111111111111111111111111111110 V
b1 6
b1 l
b110111 j
b11100001 w
1#
#2200
0#
#2220
b1 C
08
b1 7
b11100000 w
b111000 j
b1000 n
b10000100 ]
b1101100001000010000000 \
b10000000 g
1X
b11 i
b1 h
1#
#2240
0#
#2260
b10 C
b10 7
b10 h
b10 i
b111001 j
b11011111 w
1#
#2280
0#
#2300
b100 C
b100 7
b11011110 w
b111010 j
b100 h
b1 i
1#
#2320
0#
#2340
b1000 C
b1000 7
b1000 h
0X
b0 i
b111011 j
b11011101 w
1#
#2360
0#
#2380
b100000 s
b100000 *
b10000000 /
b10000000 H
b10000000 o
0B
1p
1-
b11011100 w
b111100 j
b1 n
1#
#2400
0#
#2420
b11000010011 a
0p
b11000010011 `
0-
b11111111111101100000011000010011 .
b11111111111101100000011000010011 =
b10 n
b111101 j
b11111111111101100000011000010011 2
b11111111111101100000011000010011 t
b11011011 w
1#
#2440
0#
#2460
b111 C
0A
15
0@
b111 7
b1 s
b1 *
b111101100000000010000000 \
b111 /
b111 H
b111 o
1B
09
b1111111111110110 `
b11111111 b
18
b11111111111111111111111111111111 W
b11111111111111111111111111111111 a
b1000 [
bx u
0_
b1 T
b11111111111101100000000000000000 Y
b11111111111111111111111111111111 d
b11111111111111111111111111101100 Z
b11111111111111111111011111101100 f
b11111111111101100000111111111110 c
1G
0F
bx ,
bx E
bx q
b111 I
1^
b11011010 w
b111110 j
b100 n
b111111111111011000000110000100 k
bx m
b111 U
b100000000000000000000000000001001 V
b1000 6
b1000 l
1#
#2480
0#
#2500
b100001 s
b100001 *
b10000100 /
b10000100 H
b10000100 o
0B
1p
1-
08
b1 n
b10001000 ]
b111101100000000010000100 \
b10000100 g
b111111 j
b11011001 w
1#
#2520
0#
#2540
b11111111111111111111111111111110 a
b11111110 b
b1111111000000110 `
0p
0-
b11111110000001100001111011100011 .
b11111110000001100001111011100011 =
b11011000 w
b11111110000001100001111011100011 2
b11111110000001100001111011100011 t
b1000000 j
b10 n
1#
#2560
0#
#2580
1;
1A
05
b0 C
b1000 7
b1111011100011 `
b1 s
b1 *
0^
b100 /
b100 H
b100 o
19
b10000000 \
b11100011 b
b0 W
0:
b1111011100011 a
b11 [
b0 u
b11101 D
b10 T
b11111110000001100001000000000000 Y
b11111111111111111111111111100000 d
b11111111111111111111111111111101 Z
b11111111111111111111111111111100 f
b11111111111101100001011111100000 c
0S
1P
0G
1F
b0 ,
b0 E
b0 q
b100 I
b100 n
b111111100000011000011110111000 k
b0 m
b111 U
b111 V
b111 6
b111 l
b1000001 j
b11010111 w
1#
#2600
0#
#2620
b100000 s
b100000 *
b10000000 /
b10000000 H
b10000000 o
1p
1-
b11010110 w
b1000010 j
b1 n
b10000100 ]
b1111100 \
b10000000 g
1#
#2640
0#
#2660
b10011 b
b11000010011 a
0p
b11000010011 `
0-
b11111111111101100000011000010011 .
b11111111111101100000011000010011 =
b10 n
b1000011 j
b11111111111101100000011000010011 2
b11111111111101100000011000010011 t
b11010101 w
1#
#2680
0#
#2700
0A
15
b110 C
b110 7
b1 s
b1 *
0@
b1111111111110110 `
b11110110 b
0_
b110 /
b110 H
b110 o
1B
09
0;
b111101100000000010000000 \
1^
0e
18
1:
b110 I
b11111111111111111111111111110110 a
b100 [
b100000000000000000000000000001000 V
bx u
b1100 D
b1 T
b11111111111101100000000000000000 Y
b11111111111111111111111111111111 d
b11111111111111111111111111101100 Z
b11111111111111111111011111101100 f
b11111111111101100000111111111110 c
1S
0P
1G
0F
b110 U
b11111111111111111111111111111111 W
bx ,
bx E
bx q
b11010100 w
b1000100 j
b100 n
b111111111111011000000110000100 k
bx m
1#
#2720
0#
#2740
b100001 s
b100001 *
b10000100 /
b10000100 H
b10000100 o
0B
1p
1-
08
b1 n
b10001000 ]
b111101100000000010000100 \
b10000100 g
b1000101 j
b11010011 w
1#
#2760
0#
#2780
05
b110 a
b110 b
b1111111000000110 `
0p
0-
b11111110000001100001111011100011 .
b11111110000001100001111011100011 =
b11010010 w
b11111110000001100001111011100011 2
b11111110000001100001111011100011 t
b1000110 j
b10 n
1#
#2800
0#
#2820
1;
1A
b0 C
b1000 7
b0 s
b0 *
0^
b11 /
b11 H
b11 o
19
b10000000 \
15
b1111111000000110 `
b11111110 b
b0 W
0:
b11111111111111111111111000000110 a
b1100 [
b0 u
b11101 D
b10 T
b11111110000001100001000000000000 Y
b11111111111111111111111111100000 d
b11111111111111111111111111111101 Z
b11111111111111111111111111111100 f
b11111111111101100001011111100000 c
0S
1P
0G
1F
b0 ,
b0 E
b0 q
b11 I
b100 n
b111111100000011000011110111000 k
b0 m
b110 U
b110 V
b110 6
b110 l
b1000111 j
b11010001 w
1#
#2840
0#
#2860
b100000 s
b100000 *
b10000000 /
b10000000 H
b10000000 o
1p
1-
b11010000 w
b1001000 j
b1 n
b10000100 ]
b1111100 \
b10000000 g
1#
#2880
0#
#2900
b11111111 b
b11111111111111111111111111110110 a
0p
b1111111111110110 `
0-
b11111111111101100000011000010011 .
b11111111111101100000011000010011 =
b10 n
b1001001 j
b11111111111101100000011000010011 2
b11111111111101100000011000010011 t
b11001111 w
1#
#2920
0#
#2940
05
0A
b101 C
b101 7
b11000010011 `
b1 s
b1 *
0@
b110 b
0_
b101 /
b101 H
b101 o
1B
09
0;
b111101100000000010000000 \
1^
0e
18
1:
b101 I
b110 a
b10 [
b100000000000000000000000000000111 V
bx u
b1100 D
b1 T
b11111111111101100000000000000000 Y
b11111111111111111111111111111111 d
b11111111111111111111111111101100 Z
b11111111111111111111011111101100 f
b11111111111101100000111111111110 c
1S
0P
1G
0F
b101 U
b11111111111111111111111111111111 W
bx ,
bx E
bx q
b11001110 w
b1001010 j
b100 n
b111111111111011000000110000100 k
bx m
1#
#2960
0#
#2980
b100001 s
b100001 *
b10000100 /
b10000100 H
b10000100 o
0B
1p
1-
08
b1 n
b10001000 ]
b111101100000000010000100 \
b10000100 g
b1001011 j
b11001101 w
1#
#3000
0#
#3020
b11110 a
b11110 b
b1111011100011 `
0p
0-
b11111110000001100001111011100011 .
b11111110000001100001111011100011 =
b11001100 w
b11111110000001100001111011100011 2
b11111110000001100001111011100011 t
b1001100 j
b10 n
1#
#3040
0#
#3060
1;
1A
15
b0 C
b1000 7
b1111111000000110 `
b0 s
b0 *
0^
b10 /
b10 H
b10 o
19
b10000000 \
b110 b
b0 W
0:
b11111111111111111111111000000110 a
b1100 [
b0 u
b11101 D
b10 T
b11111110000001100001000000000000 Y
b11111111111111111111111111100000 d
b11111111111111111111111111111101 Z
b11111111111111111111111111111100 f
b11111111111101100001011111100000 c
0S
1P
0G
1F
b0 ,
b0 E
b0 q
b10 I
b100 n
b111111100000011000011110111000 k
b0 m
b101 U
b101 V
b101 6
b101 l
b1001101 j
b11001011 w
1#
#3080
0#
#3100
b100000 s
b100000 *
b10000000 /
b10000000 H
b10000000 o
1p
1-
b11001010 w
b1001110 j
b1 n
b10000100 ]
b1111100 \
b10000000 g
1#
#3120
0#
#3140
b11110110 b
b11111111111111111111111111110110 a
0p
b1111111111110110 `
0-
b11111111111101100000011000010011 .
b11111111111101100000011000010011 =
b10 n
b1001111 j
b11111111111101100000011000010011 2
b11111111111101100000011000010011 t
b11001001 w
1#
#3160
0#
#3180
0A
05
b100 C
b100 7
b10011 a
b1 s
b1 *
0@
b11000010011 `
b10011 b
0_
b100 /
b100 H
b100 o
1B
09
0;
b111101100000000010000000 \
1^
0e
18
1:
b100 I
b1 [
b100000000000000000000000000000110 V
bx u
b1100 D
b1 T
b11111111111101100000000000000000 Y
b11111111111111111111111111111111 d
b11111111111111111111111111101100 Z
b11111111111111111111011111101100 f
b11111111111101100000111111111110 c
1S
0P
1G
0F
b100 U
b11111111111111111111111111111111 W
bx ,
bx E
bx q
b11001000 w
b1010000 j
b100 n
b111111111111011000000110000100 k
bx m
1#
#3200
0#
#3220
b100001 s
b100001 *
b10000100 /
b10000100 H
b10000100 o
0B
1p
1-
08
b1 n
b10001000 ]
b111101100000000010000100 \
b10000100 g
b1010001 j
b11000111 w
1#
#3240
0#
#3260
15
b11111111111111111111111111100011 a
b11100011 b
b1111011100011 `
0p
0-
b11111110000001100001111011100011 .
b11111110000001100001111011100011 =
b11000110 w
b11111110000001100001111011100011 2
b11111110000001100001111011100011 t
b1010010 j
b10 n
1#
#3280
0#
#3300
1;
1A
b0 C
b1000 7
b0 s
b0 *
0^
b1 /
b1 H
b1 o
19
b10000000 \
05
b1111011100011 `
b11110 b
b0 W
0:
b1111011100011 a
b11 [
b0 u
b11101 D
b10 T
b11111110000001100001000000000000 Y
b11111111111111111111111111100000 d
b11111111111111111111111111111101 Z
b11111111111111111111111111111100 f
b11111111111101100001011111100000 c
0S
1P
0G
1F
b0 ,
b0 E
b0 q
b1 I
b100 n
b111111100000011000011110111000 k
b0 m
b100 U
b100 V
b100 6
b100 l
b1010011 j
b11000101 w
1#
#3320
0#
#3340
b100000 s
b100000 *
b10000000 /
b10000000 H
b10000000 o
1p
1-
b11000100 w
b1010100 j
b1 n
b10000100 ]
b1111100 \
b10000000 g
1#
#3360
0#
#3380
b110 b
b11000010011 a
0p
b11000010011 `
0-
b11111111111101100000011000010011 .
b11111111111101100000011000010011 =
b10 n
b1010101 j
b11111111111101100000011000010011 2
b11111111111101100000011000010011 t
b11000011 w
1#
#3400
0#
